%YAML 1.1
%TAG !u! tag:unity3d.com,2011:
--- !u!1001 &5035523710013241602
PrefabInstance:
  m_ObjectHideFlags: 0
  serializedVersion: 2
  m_Modification:
    m_TransformParent: {fileID: 0}
    m_Modifications:
    - target: {fileID: 1401520163142514271, guid: 14138c0d55bb65c4595d06e4407adb2c,
        type: 3}
      propertyPath: m_Name
      value: PR_BWorkshop_2
      objectReference: {fileID: 0}
    - target: {fileID: 956300932043337154, guid: 14138c0d55bb65c4595d06e4407adb2c,
        type: 3}
      propertyPath: m_LocalPosition.x
      value: 0
      objectReference: {fileID: 0}
    - target: {fileID: 956300932043337154, guid: 14138c0d55bb65c4595d06e4407adb2c,
        type: 3}
      propertyPath: m_LocalPosition.y
      value: 0
      objectReference: {fileID: 0}
    - target: {fileID: 956300932043337154, guid: 14138c0d55bb65c4595d06e4407adb2c,
        type: 3}
      propertyPath: m_LocalPosition.z
      value: 0
      objectReference: {fileID: 0}
    - target: {fileID: 956300932043337154, guid: 14138c0d55bb65c4595d06e4407adb2c,
        type: 3}
      propertyPath: m_LocalRotation.x
      value: 0
      objectReference: {fileID: 0}
    - target: {fileID: 956300932043337154, guid: 14138c0d55bb65c4595d06e4407adb2c,
        type: 3}
      propertyPath: m_LocalRotation.y
      value: 0
      objectReference: {fileID: 0}
    - target: {fileID: 956300932043337154, guid: 14138c0d55bb65c4595d06e4407adb2c,
        type: 3}
      propertyPath: m_LocalRotation.z
      value: 0
      objectReference: {fileID: 0}
    - target: {fileID: 956300932043337154, guid: 14138c0d55bb65c4595d06e4407adb2c,
        type: 3}
      propertyPath: m_LocalRotation.w
      value: 1
      objectReference: {fileID: 0}
    - target: {fileID: 956300932043337154, guid: 14138c0d55bb65c4595d06e4407adb2c,
        type: 3}
      propertyPath: m_RootOrder
      value: 0
      objectReference: {fileID: 0}
    - target: {fileID: 956300932043337154, guid: 14138c0d55bb65c4595d06e4407adb2c,
        type: 3}
      propertyPath: m_LocalEulerAnglesHint.x
      value: 0
      objectReference: {fileID: 0}
    - target: {fileID: 956300932043337154, guid: 14138c0d55bb65c4595d06e4407adb2c,
        type: 3}
      propertyPath: m_LocalEulerAnglesHint.y
      value: 0
      objectReference: {fileID: 0}
    - target: {fileID: 956300932043337154, guid: 14138c0d55bb65c4595d06e4407adb2c,
        type: 3}
      propertyPath: m_LocalEulerAnglesHint.z
      value: 0
      objectReference: {fileID: 0}
    - target: {fileID: 6011135632222349090, guid: 14138c0d55bb65c4595d06e4407adb2c,
        type: 3}
      propertyPath: m_Materials.Array.data[0]
      value: 
      objectReference: {fileID: 2100000, guid: fbd693f2015a04145972fa9835974d8b, type: 2}
    - target: {fileID: 7774034729418099627, guid: 14138c0d55bb65c4595d06e4407adb2c,
        type: 3}
      propertyPath: m_Materials.Array.data[0]
      value: 
      objectReference: {fileID: 2100000, guid: fbd693f2015a04145972fa9835974d8b, type: 2}
    - target: {fileID: 7859453308259475383, guid: 14138c0d55bb65c4595d06e4407adb2c,
        type: 3}
      propertyPath: m_Materials.Array.data[0]
      value: 
      objectReference: {fileID: 2100000, guid: fbd693f2015a04145972fa9835974d8b, type: 2}
    m_RemovedComponents: []
  m_SourcePrefab: {fileID: 100100000, guid: 14138c0d55bb65c4595d06e4407adb2c, type: 3}
