%YAML 1.1
%TAG !u! tag:unity3d.com,2011:
--- !u!1001 &956384203028663955
PrefabInstance:
  m_ObjectHideFlags: 0
  serializedVersion: 2
  m_Modification:
    m_TransformParent: {fileID: 0}
    m_Modifications:
    - target: {fileID: 4112340928149250923, guid: 62ef96a6d62c4af40ad228150c8800c2,
        type: 3}
      propertyPath: m_Name
      value: uiCollect_2
      objectReference: {fileID: 0}
    - target: {fileID: 6215348130956844080, guid: 62ef96a6d62c4af40ad228150c8800c2,
        type: 3}
      propertyPath: m_LocalPosition.x
      value: 0
      objectReference: {fileID: 0}
    - target: {fileID: 6215348130956844080, guid: 62ef96a6d62c4af40ad228150c8800c2,
        type: 3}
      propertyPath: m_LocalPosition.y
      value: 0
      objectReference: {fileID: 0}
    - target: {fileID: 6215348130956844080, guid: 62ef96a6d62c4af40ad228150c8800c2,
        type: 3}
      propertyPath: m_LocalPosition.z
      value: 0
      objectReference: {fileID: 0}
    - target: {fileID: 6215348130956844080, guid: 62ef96a6d62c4af40ad228150c8800c2,
        type: 3}
      propertyPath: m_LocalRotation.x
      value: 0
      objectReference: {fileID: 0}
    - target: {fileID: 6215348130956844080, guid: 62ef96a6d62c4af40ad228150c8800c2,
        type: 3}
      propertyPath: m_LocalRotation.y
      value: 0
      objectReference: {fileID: 0}
    - target: {fileID: 6215348130956844080, guid: 62ef96a6d62c4af40ad228150c8800c2,
        type: 3}
      propertyPath: m_LocalRotation.z
      value: 0
      objectReference: {fileID: 0}
    - target: {fileID: 6215348130956844080, guid: 62ef96a6d62c4af40ad228150c8800c2,
        type: 3}
      propertyPath: m_LocalRotation.w
      value: 1
      objectReference: {fileID: 0}
    - target: {fileID: 6215348130956844080, guid: 62ef96a6d62c4af40ad228150c8800c2,
        type: 3}
      propertyPath: m_RootOrder
      value: 0
      objectReference: {fileID: 0}
    - target: {fileID: 6215348130956844080, guid: 62ef96a6d62c4af40ad228150c8800c2,
        type: 3}
      propertyPath: m_LocalEulerAnglesHint.x
      value: 0
      objectReference: {fileID: 0}
    - target: {fileID: 6215348130956844080, guid: 62ef96a6d62c4af40ad228150c8800c2,
        type: 3}
      propertyPath: m_LocalEulerAnglesHint.y
      value: 0
      objectReference: {fileID: 0}
    - target: {fileID: 6215348130956844080, guid: 62ef96a6d62c4af40ad228150c8800c2,
        type: 3}
      propertyPath: m_LocalEulerAnglesHint.z
      value: 0
      objectReference: {fileID: 0}
    - target: {fileID: 6215348130956844080, guid: 62ef96a6d62c4af40ad228150c8800c2,
        type: 3}
      propertyPath: m_AnchoredPosition.x
      value: 0
      objectReference: {fileID: 0}
    - target: {fileID: 6215348130956844080, guid: 62ef96a6d62c4af40ad228150c8800c2,
        type: 3}
      propertyPath: m_AnchoredPosition.y
      value: 0
      objectReference: {fileID: 0}
    - target: {fileID: 6215348130956844080, guid: 62ef96a6d62c4af40ad228150c8800c2,
        type: 3}
      propertyPath: m_SizeDelta.x
      value: 76
      objectReference: {fileID: 0}
    - target: {fileID: 6215348130956844080, guid: 62ef96a6d62c4af40ad228150c8800c2,
        type: 3}
      propertyPath: m_SizeDelta.y
      value: 16
      objectReference: {fileID: 0}
    - target: {fileID: 6215348130956844080, guid: 62ef96a6d62c4af40ad228150c8800c2,
        type: 3}
      propertyPath: m_AnchorMin.x
      value: 0.5
      objectReference: {fileID: 0}
    - target: {fileID: 6215348130956844080, guid: 62ef96a6d62c4af40ad228150c8800c2,
        type: 3}
      propertyPath: m_AnchorMin.y
      value: 0.5
      objectReference: {fileID: 0}
    - target: {fileID: 6215348130956844080, guid: 62ef96a6d62c4af40ad228150c8800c2,
        type: 3}
      propertyPath: m_AnchorMax.x
      value: 0.5
      objectReference: {fileID: 0}
    - target: {fileID: 6215348130956844080, guid: 62ef96a6d62c4af40ad228150c8800c2,
        type: 3}
      propertyPath: m_AnchorMax.y
      value: 0.5
      objectReference: {fileID: 0}
    - target: {fileID: 6215348130956844080, guid: 62ef96a6d62c4af40ad228150c8800c2,
        type: 3}
      propertyPath: m_Pivot.x
      value: 0.5
      objectReference: {fileID: 0}
    - target: {fileID: 6215348130956844080, guid: 62ef96a6d62c4af40ad228150c8800c2,
        type: 3}
      propertyPath: m_Pivot.y
      value: 0.5
      objectReference: {fileID: 0}
    - target: {fileID: 4194552629147906932, guid: 62ef96a6d62c4af40ad228150c8800c2,
        type: 3}
      propertyPath: m_AnchoredPosition.x
      value: 22.5
      objectReference: {fileID: 0}
    - target: {fileID: 4108838288043082584, guid: 62ef96a6d62c4af40ad228150c8800c2,
        type: 3}
      propertyPath: m_AnchoredPosition.x
      value: -22.5
      objectReference: {fileID: 0}
    - target: {fileID: 8609952276515405170, guid: 62ef96a6d62c4af40ad228150c8800c2,
        type: 3}
      propertyPath: m_Color.r
      value: 1
      objectReference: {fileID: 0}
    - target: {fileID: 8609952276515405170, guid: 62ef96a6d62c4af40ad228150c8800c2,
        type: 3}
      propertyPath: m_Color.g
      value: 0.3404222
      objectReference: {fileID: 0}
    - target: {fileID: 8609952276515405170, guid: 62ef96a6d62c4af40ad228150c8800c2,
        type: 3}
      propertyPath: m_Color.b
      value: 0.2028302
      objectReference: {fileID: 0}
    - target: {fileID: 4464198563015266261, guid: 62ef96a6d62c4af40ad228150c8800c2,
        type: 3}
      propertyPath: m_fontColor32.rgba
      value: 4285827071
      objectReference: {fileID: 0}
    - target: {fileID: 4464198563015266261, guid: 62ef96a6d62c4af40ad228150c8800c2,
        type: 3}
      propertyPath: m_fontColor.r
      value: 1
      objectReference: {fileID: 0}
    - target: {fileID: 4464198563015266261, guid: 62ef96a6d62c4af40ad228150c8800c2,
        type: 3}
      propertyPath: m_fontColor.g
      value: 0.53002876
      objectReference: {fileID: 0}
    - target: {fileID: 4464198563015266261, guid: 62ef96a6d62c4af40ad228150c8800c2,
        type: 3}
      propertyPath: m_fontColor.b
      value: 0.4575472
      objectReference: {fileID: 0}
    m_RemovedComponents: []
  m_SourcePrefab: {fileID: 100100000, guid: 62ef96a6d62c4af40ad228150c8800c2, type: 3}
